The breast cancer dataset
…
Let’s take a look at what this dataset looks like:

breastcancer

## # A tibble: 683 x 10
##    c.thick  size shape adhes sing.epith  bare bland  norm mitos class
##      <dbl> <dbl> <dbl> <dbl>      <dbl> <int> <dbl> <dbl> <dbl> <int>
##  1       5     1     1     1          2     1     3     1     1     0
##  2       5     4     4     5          7    10     3     2     1     0
##  3       3     1     1     1          2     2     3     1     1     0
##  4       6     8     8     1          3     4     3     7     1     0
##  5       4     1     1     3          2     1     3     1     1     0
##  6       8    10    10     8          7    10     9     7     1     1
##  7       1     1     1     1          2    10     3     1     1     0
##  8       2     1     2     1          2     1     3     1     1     0
##  9       2     1     1     1          2     1     1     1     5     0
## 10       4     2     1     1          2     1     2     1     1     0
## # … with 673 more rows
…
We’ll be dividing our dataset into 70% of the observations for the train set and 30% of the observations as the test set.

set.seed(2387)
# create dataframe of train, test sets
tt.sets <- select(breastcancer, bare, c.thick, norm, size, class) %>% 
  crossv_mc(n = 100, test = 0.3) %>% 
  mutate(ind.tr = map(train, as.integer), 
         ind.te = map(test, as.integer), 
         train.s = map(train, as_data_frame), 
         test.s = map(test, as_data_frame))
tt.sets

## # A tibble: 100 x 7
##    train     test      .id   ind.tr     ind.te     train.s        test.s        
##    <list>    <list>    <chr> <list>     <list>     <list>         <list>        
##  1 <resampl… <resampl… 001   <int [478… <int [205… <tibble [478 … <tibble [205 …
##  2 <resampl… <resampl… 002   <int [478… <int [205… <tibble [478 … <tibble [205 …
##  3 <resampl… <resampl… 003   <int [478… <int [205… <tibble [478 … <tibble [205 …
##  4 <resampl… <resampl… 004   <int [478… <int [205… <tibble [478 … <tibble [205 …
##  5 <resampl… <resampl… 005   <int [478… <int [205… <tibble [478 … <tibble [205 …
##  6 <resampl… <resampl… 006   <int [478… <int [205… <tibble [478 … <tibble [205 …
##  7 <resampl… <resampl… 007   <int [478… <int [205… <tibble [478 … <tibble [205 …
##  8 <resampl… <resampl… 008   <int [478… <int [205… <tibble [478 … <tibble [205 …
##  9 <resampl… <resampl… 009   <int [478… <int [205… <tibble [478 … <tibble [205 …
## 10 <resampl… <resampl… 010   <int [478… <int [205… <tibble [478 … <tibble [205 …
## # … with 90 more rows
…
