Wasted on data: Exploring the wine dataset
…
         alcohol = X2, 
         mall.Ac = X3, 
         ash = X4, 
         alk.Ash = X5, 
         magnes = X6, 
         tot.Phen = X7, 
         flavan = X8, 
         nonFl.ph = X9, 
         proanth = X10, 
         col.Int = X11, 
         hue = X12, 
         dil = X13, 
         proline = X14) -> wine

## # A tibble: 178 x 14
##    class alcohol mall.Ac   ash alk.Ash magnes tot.Phen flavan nonFl.ph
##    <dbl>   <dbl>   <dbl> <dbl>   <dbl>  <dbl>    <dbl>  <dbl>    <dbl>
##  1     1    14.2    1.71  2.43    15.6    127     2.8    3.06    0.28 
##  2     1    13.2    1.78  2.14    11.2    100     2.65   2.76    0.26 
##  3     1    13.2    2.36  2.67    18.6    101     2.8    3.24    0.3  
##  4     1    14.4    1.95  2.5     16.8    113     3.85   3.49    0.24 
##  5     1    13.2    2.59  2.87    21      118     2.8    2.69    0.39 
##  6     1    14.2    1.76  2.45    15.2    112     3.27   3.39    0.34 
##  7     1    14.4    1.87  2.45    14.6     96     2.5    2.52    0.3  
##  8     1    14.1    2.15  2.61    17.6    121     2.6    2.51    0.31 
##  9     1    14.8    1.64  2.17    14       97     2.8    2.98    0.290
## 10     1    13.9    1.35  2.27    16       98     2.98   3.15    0.22 
## # … with 168 more rows, and 5 more variables: proanth <dbl>,
## #   col.Int <dbl>, hue <dbl>, dil <dbl>, proline <dbl>
…
tt.sets

## # A tibble: 100 x 7
##    train     test      .id   ind.tr     ind.te   train.s       test.s      
##    <list>    <list>    <chr> <list>     <list>   <list>        <list>      
##  1 <resampl… <resampl… 001   <int [124… <int [5… <tibble [124… <tibble [54…
##  2 <resampl… <resampl… 002   <int [124… <int [5… <tibble [124… <tibble [54…
##  3 <resampl… <resampl… 003   <int [124… <int [5… <tibble [124… <tibble [54…
##  4 <resampl… <resampl… 004   <int [124… <int [5… <tibble [124… <tibble [54…
##  5 <resampl… <resampl… 005   <int [124… <int [5… <tibble [124… <tibble [54…
##  6 <resampl… <resampl… 006   <int [124… <int [5… <tibble [124… <tibble [54…
##  7 <resampl… <resampl… 007   <int [124… <int [5… <tibble [124… <tibble [54…
##  8 <resampl… <resampl… 008   <int [124… <int [5… <tibble [124… <tibble [54…
##  9 <resampl… <resampl… 009   <int [124… <int [5… <tibble [124… <tibble [54…
## 10 <resampl… <resampl… 010   <int [124… <int [5… <tibble [124… <tibble [54…
## # … with 90 more rows
…
