TRAIN, inflation, and why economists think everything causes everything
…
First look at the dataset

# View dataset
cpi_2006 

## # A tibble: 316 x 2
##    month  data             
##    <chr>  <list>           
##  1 Jan_94 <tibble [88 x 6]>
##  2 Feb_94 <tibble [88 x 6]>
##  3 Mar_94 <tibble [88 x 6]>
##  4 Apr_94 <tibble [88 x 6]>
##  5 May_94 <tibble [88 x 6]>
##  6 Jun_94 <tibble [88 x 6]>
##  7 Jul_94 <tibble [88 x 6]>
##  8 Aug_94 <tibble [88 x 6]>
##  9 Sep_94 <tibble [88 x 6]>
## 10 Oct_94 <tibble [88 x 6]>
## # ... with 306 more rows
…
